2. HPAanalyze in-depth: Working with Human Protein Atlas (HPA) data in R • HPAanalyze
…
#> [1] "ProtClass"     "TissueExprSum" "Antibody"      "TissueExpr"   

Import xml file with hpaXmlGet()

The hoaXmlGet() function takes an Ensembl gene id (start with ENSG) and import the perspective XML file into R. This function calls the xml2::read_xml() under the hood, hence the resulting object may be processed further with xml2 functions if desired.

EGFRxml <- hpaXmlGet('ENSG00000146648')

View protein classes with hpaXmlProtClass()

Protein class of queried protein can be extracted from the imported XML with hpaXmlProtClass(). The output of this function is a tibble of 4 columns: id, name, parent_id and source

hpaXmlProtClass(EGFRxml)

#> # A tibble: 40 x 4
#>    id    name                                   parent_id source    
#>    <chr> <chr>                                  <chr>     <chr>     
#>  1 Ez    Enzymes                                <NA>      <NA>      
#>  2 Ec    ENZYME proteins                        Ez        ENZYME    
#>  3 Et    Transferases                           Ec        ENZYME    
#>  4 Ki    Kinases                                Ez        UniProt   
#>  5 Kt    Tyr protein kinases                    Ki        UniProt   
#>  6 Ma    Predicted membrane proteins            <NA>      MDM       
#>  7 Md    Membrane proteins predicted by MDM     <NA>      MDM       
#>  8 Me    MEMSAT3 predicted membrane proteins    <NA>      MEMSAT3   
#>  9 Mf    MEMSAT-SVM predicted membrane proteins <NA>      MEMSAT-SVM
#> 10 Mg    Phobius predicted membrane proteins    <NA>      Phobius   
#> # ... with 30 more rows
…
tissueExpression <- hpaXmlTissueExpr(EGFRxml)
summary(tissueExpression)

#>      Length Class  Mode
#> [1,] 18     tbl_df list
#> [2,] 18     tbl_df list
#> [3,] 18     tbl_df list
#> [4,] 18     tbl_df list
#> [5,] 18     tbl_df list

Each tibble contain clinical data (patientid, age, sex), tissue information (snomedCode, tissueDescription), staining results (staining, intensity, location) and one imageUrl for each sample. However, due to the large amount of data and the relatively large size of each image, hpaXmlTissueExpr does not provide an automated download option.

tissueExpression[[1]]

#> # A tibble: 327 x 18
#>    patientId age   sex   staining intensity quantity location imageUrl
#>    <chr>     <chr> <chr> <chr>    <chr>     <chr>    <chr>    <chr>   
#>  1 1653      53    Male  <NA>     <NA>      <NA>     <NA>     http://~
#>  2 1721      60    Fema~ <NA>     <NA>      <NA>     <NA>     http://~
#>  3 1725      57    Male  <NA>     <NA>      <NA>     <NA>     http://~
#>  4 4         25    Male  <NA>     <NA>      <NA>     <NA>     http://~
#>  5 512       34    Fema~ <NA>     <NA>      <NA>     <NA>     http://~
#>  6 2664      74    Fema~ <NA>     <NA>      <NA>     <NA>     http://~
#>  7 2665      88    Fema~ <NA>     <NA>      <NA>     <NA>     http://~
#>  8 1391      54    Fema~ <NA>     <NA>      <NA>     <NA>     http://~
#>  9 1447      45    Fema~ <NA>     <NA>      <NA>     <NA>     http://~
#> 10 1452      44    Fema~ <NA>     <NA>      <NA>     <NA>     http://~
#> # ... with 317 more rows, and 10 more variables: snomedCode1 <chr>,
#> #   snomedCode2 <chr>, snomedCode3 <chr>, snomedCode4 <chr>,
#> #   snomedCode5 <chr>, tissueDescription1 <chr>, tissueDescription2 <chr>,
#> #   tissueDescription3 <chr>, tissueDescription4 <chr>,
#> #   tissueDescription5 <chr>
…
